{
  "OrderedCategories": [ "Romania", "Netherlands", "Turkey", "Finland", "Switzerland", "Norway", "Germany", "Greece", "Belgium", "Austria", "Israel", "Sweden", "Denmark", "Iceland", "United Kingdom", "Italy", "Latvia", "Japan", "Hungary", "Croatia", "Bulgaria", "Spain", "France", "Portugal", "Lithuania", "United States", "Australia", "Slovak Republic", "New Zealand", "Ireland", "Korea", "Poland", "Malta", "Cyprus", "Slovenia", "Estonia", "Luxembourg", "Canada", "Czech Republic", "Russia" ],
  "OrderedSeries": [
    [ 62.6, 65.37, 73.25, 74.97, 75.78, 76.4, 78.26, 79.05, 79.16, 79.18, 79.72, 80.74, 81.1, 81.48, 81.68, 81.92, 82.78, 83.63, 84.45, 84.89, 85.76, 85.9, 87.3, 87.78, 88.08, 88.23, 88.65, 90.55, 91.01, 91.34, 91.92, 92.25, 93.82, 94.99, 96.93, 97.29, 97.75, 97.88, 109.91, 123.18 ],
    [ -6.5, -17.1, -11.75, -24.54, -4.21, -19.29, -10.55, -9.69, -14.64, -12.61, -10.1, -24.16, -33.45, -21.66, -13.4, -14.93, -9.66, -6.53, -4.8, 0, -8.33, -7.75, -9.55, -4.83, -13.15, -4.12, -24.65, -4.77, -18.44, -11.78, -4.63, -2.3, -7.75, -1.68, -3.61, -7.5, -5.92, -10.96, 1.83, -12.44 ],
    [ -35, -21.34, -15, -9.78, -25.31, -8.2, -20.37, -16, -13.78, -17.98, -12.82, -7.21, -0.27, -4.31, -9.44, -9.49, -11, -14.45, -18.5, -20, -13.78, -6.35, -12.15, -11, -9, -7.65, 0, -13.4, -1.39, -4, -8.41, -21.48, -10, -7.8, -22.1, -3.6, -12.36, -7.34, -11, 0 ],
    [ 0, 0, 0, 3.97, 0, 0, 0, 0, 0, 0, 0, 6.08, 0, 0, 0, 0, 0, 0, 0, 0, 0, 0, 4.68, 0, 0, 0, 0, 4.15, 6.25, 0, 0, 0, 0, 0, 0, 0, 0, 0, 0, 0 ],
    [ 4.1, 3.8, 0, 5.32, 5.3, 3.89, 9.18, 4.74, 7.59, 9.77, 2.64, 6.03, 6.78, 3.29, 4.53, 5.86, 3.45, 4.61, 7.75, 4.89, 7.87, 0, 4.31, 3.61, 9.72, 0, 11.53, 4.56, 4.59, 7.11, 4.96, 10.99, 3.86, 4.47, 13.82, 8.39, 12.54, 16.17, 19.08, 23.25 ],
    [ 0, 0, 0, 0, 0, 0, 0, 0, 0, 0, 0, 0, 2.13, 4.17, 0, 0.48, 0, 0, 0, 0, 0, 0, 0, 0, 0, 0, 1.77, 0, 0, 0, 0, 5.03, 7.72, 0, 8.83, 0, 3.5, 0, 0, 10.42 ],
    [ 0, 0, 0, 0, 0, 0, 0, 0, 0, 0, 0, 0, 0, 0, 0, 0, 0, 0, 0, 0, 0, 0, 0, 0, 0, 0, 0, 0, 0, 0, 0, 0, 0, 0, 0, 0, 0, 0, 0, 0 ],
    [ 0, 0, 0, 0, 0, 0, 0, 0, 0, 0, 0, 0, 5.91, 0, 0, 0, 0, 0, 0, 0, 0, 0, 0, 0, 0.51, 0, 0, 0, 0, 0, 0, 0, 0, 0, 0, 0, 0, 0, 0, 1.95 ],
    [ 100, 100, 100, 100, 100, 100, 100, 100, 100, 100, 100, 100, 100, 100, 100, 100, 100, 100, 100, 100, 100, 100, 100, 100, 100, 100, 100, 100, 100, 100, 100, 100, 100, 100, 100, 100, 100, 100, 100, 100 ]
  ],
  "Guid": null,
  "ExcelURL": null,
  "LogURL": null,
  "Title": "Net income by country, 2019",
  "Subtitle": "Couple with 2 children",
  "TaxbenCommand": "",
  "ExceptionMessage": null
}