{
  "OrderedCategories": [ "Australia", "Latvia" ],
  "OrderedSeries": [
    {
      "OrderedCategories": [ "1", "2", "3", "4", "5", "6", "7", "8", "9", "10", "11", "12", "13", "14", "15", "16", "17", "18", "19", "20", "21", "22", "23", "24", "25", "26", "27", "28", "29", "30", "31", "32", "33", "34", "35", "36", "37", "38", "39", "40", "41", "42", "43", "44", "45", "46", "47", "48", "49", "50", "51", "52", "53", "54", "55", "56", "57", "58", "59", "60" ],
      "OrderedSeries": [
        [ 56.63, 56.63, 56.63, 56.63, 56.63, 56.63, 56.63, 56.63, 56.63, 56.63, 56.63, 56.63, 56.63, 56.63, 56.63, 56.63, 56.63, 56.63, 56.63, 56.63, 56.63, 56.63, 56.63, 56.63, 56.63, 56.63, 56.63, 56.63, 56.63, 56.63, 56.63, 56.63, 56.63, 56.63, 56.63, 56.63, 56.63, 56.63, 56.63, 56.63, 56.63, 56.63, 56.63, 56.63, 56.63, 56.63, 56.63, 56.63, 56.63, 56.63, 56.63, 56.63, 56.63, 56.63, 56.63, 56.63, 56.63, 56.63, 56.63, 56.63 ],
        [ 0.58, 0.58, 0.58, 0.58, 0.58, 0.58, 0.58, 0.58, 0.58, 0.58, 0.58, 0.58, 0.58, 0.58, 0.58, 0.58, 0.58, 0.58, 0.58, 0.58, 0.58, 0.58, 0.58, 0.58, 0.58, 0.58, 0.58, 0.58, 0.58, 0.58, 0.58, 0.58, 0.58, 0.58, 0.58, 0.58, 0.58, 0.58, 0.58, 0.58, 0.58, 0.58, 0.58, 0.58, 0.58, 0.58, 0.58, 0.58, 0.58, 0.58, 0.58, 0.58, 0.58, 0.58, 0.58, 0.58, 0.58, 0.58, 0.58, 0.58 ],
        [ 0, 0, 0, 0, 0, 0, 0, 0, 0, 0, 0, 0, 0, 0, 0, 0, 0, 0, 0, 0, 0, 0, 0, 0, 0, 0, 0, 0, 0, 0, 0, 0, 0, 0, 0, 0, 0, 0, 0, 0, 0, 0, 0, 0, 0, 0, 0, 0, 0, 0, 0, 0, 0, 0, 0, 0, 0, 0, 0, 0 ],
        [ 0, 0, 0, 0, 0, 0, 0, 0, 0, 0, 0, 0, 0, 0, 0, 0, 0, 0, 0, 0, 0, 0, 0, 0, 0, 0, 0, 0, 0, 0, 0, 0, 0, 0, 0, 0, 0, 0, 0, 0, 0, 0, 0, 0, 0, 0, 0, 0, 0, 0, 0, 0, 0, 0, 0, 0, 0, 0, 0, 0 ],
        [ 34.56, 34.56, 34.56, 34.56, 34.56, 34.56, 34.56, 34.56, 34.56, 34.56, 34.56, 34.56, 34.56, 34.56, 34.56, 34.56, 34.56, 34.56, 34.56, 34.56, 34.56, 34.56, 34.56, 34.56, 34.56, 34.56, 34.56, 34.56, 34.56, 34.56, 34.56, 34.56, 34.56, 34.56, 34.56, 34.56, 34.56, 34.56, 34.56, 34.56, 34.56, 34.56, 34.56, 34.56, 34.56, 34.56, 34.56, 34.56, 34.56, 34.56, 34.56, 34.56, 34.56, 34.56, 34.56, 34.56, 34.56, 34.56, 34.56, 34.56 ],
        [ 5.21, 5.21, 5.21, 5.21, 5.21, 5.21, 5.21, 5.21, 5.21, 5.21, 5.21, 5.21, 5.21, 5.21, 5.21, 5.21, 5.21, 5.21, 5.21, 5.21, 5.21, 5.21, 5.21, 5.21, 5.21, 5.21, 5.21, 5.21, 5.21, 5.21, 5.21, 5.21, 5.21, 5.21, 5.21, 5.21, 5.21, 5.21, 5.21, 5.21, 5.21, 5.21, 5.21, 5.21, 5.21, 5.21, 5.21, 5.21, 5.21, 5.21, 5.21, 5.21, 5.21, 5.21, 5.21, 5.21, 5.21, 5.21, 5.21, 5.21 ],
        [ 16.28, 16.28, 16.28, 16.28, 16.28, 16.28, 16.28, 16.28, 16.28, 16.28, 16.28, 16.28, 16.28, 16.28, 16.28, 16.28, 16.28, 16.28, 16.28, 16.28, 16.28, 16.28, 16.28, 16.28, 16.28, 16.28, 16.28, 16.28, 16.28, 16.28, 16.28, 16.28, 16.28, 16.28, 16.28, 16.28, 16.28, 16.28, 16.28, 16.28, 16.28, 16.28, 16.28, 16.28, 16.28, 16.28, 16.28, 16.28, 16.28, 16.28, 16.28, 16.28, 16.28, 16.28, 16.28, 16.28, 16.28, 16.28, 16.28, 16.28 ],
        [ 0, 0, 0, 0, 0, 0, 0, 0, 0, 0, 0, 0, 0, 0, 0, 0, 0, 0, 0, 0, 0, 0, 0, 0, 0, 0, 0, 0, 0, 0, 0, 0, 0, 0, 0, 0, 0, 0, 0, 0, 0, 0, 0, 0, 0, 0, 0, 0, 0, 0, 0, 0, 0, 0, 0, 0, 0, 0, 0, 0 ],
        [ 0, 0, 0, 0, 0, 0, 0, 0, 0, 0, 0, 0, 0, 0, 0, 0, 0, 0, 0, 0, 0, 0, 0, 0, 0, 0, 0, 0, 0, 0, 0, 0, 0, 0, 0, 0, 0, 0, 0, 0, 0, 0, 0, 0, 0, 0, 0, 0, 0, 0, 0, 0, 0, 0, 0, 0, 0, 0, 0, 0 ]
      ]
    },
    {
      "OrderedCategories": [ "1", "2", "3", "4", "5", "6", "7", "8", "9", "10", "11", "12", "13", "14", "15", "16", "17", "18", "19", "20", "21", "22", "23", "24", "25", "26", "27", "28", "29", "30", "31", "32", "33", "34", "35", "36", "37", "38", "39", "40", "41", "42", "43", "44", "45", "46", "47", "48", "49", "50", "51", "52", "53", "54", "55", "56", "57", "58", "59", "60" ],
      "OrderedSeries": [
        [ 83.18, 83.18, 83.18, 83.18, 83.18, 83.18, 83.18, 83.18, 83.18, 83.18, 83.18, 83.18, 83.18, 83.18, 83.18, 83.18, 83.18, 83.18, 83.18, 83.18, 83.18, 83.18, 83.18, 83.18, 83.18, 83.18, 83.18, 83.18, 83.18, 83.18, 83.18, 83.18, 83.18, 83.18, 83.18, 83.18, 83.18, 83.18, 83.18, 83.18, 83.18, 83.18, 83.18, 83.18, 83.18, 83.18, 83.18, 83.18, 83.18, 83.18, 83.18, 83.18, 83.18, 83.18, 83.18, 83.18, 83.18, 83.18, 83.18, 83.18 ],
        [ 0, 0, 0, 0, 0, 0, 0, 0, 0, 0, 0, 0, 0, 0, 0, 0, 0, 0, 0, 0, 0, 0, 0, 0, 0, 0, 0, 0, 0, 0, 0, 0, 0, 0, 0, 0, 0, 0, 0, 0, 0, 0, 0, 0, 0, 0, 0, 0, 0, 0, 0, 0, 0, 0, 0, 0, 0, 0, 0, 0 ],
        [ 0, 0, 0, 0, 0, 0, 0, 0, 0, 0, 0, 0, 0, 0, 0, 0, 0, 0, 0, 0, 0, 0, 0, 0, 0, 0, 0, 0, 0, 0, 0, 0, 0, 0, 0, 0, 0, 0, 0, 0, 0, 0, 0, 0, 0, 0, 0, 0, 0, 0, 0, 0, 0, 0, 0, 0, 0, 0, 0, 0 ],
        [ 0, 0, 0, 0, 0, 0, 0, 0, 0, 0, 0, 0, 0, 0, 0, 0, 0, 0, 0, 0, 0, 0, 0, 0, 0, 0, 0, 0, 0, 0, 0, 0, 0, 0, 0, 0, 0, 0, 0, 0, 0, 0, 0, 0, 0, 0, 0, 0, 0, 0, 0, 0, 0, 0, 0, 0, 0, 0, 0, 0 ],
        [ 3.74, 3.74, 3.74, 3.74, 3.74, 3.74, 3.74, 3.74, 3.74, 3.74, 3.74, 3.74, 3.74, 3.74, 3.74, 3.74, 3.74, 3.74, 3.74, 3.74, 3.74, 3.74, 3.74, 3.74, 3.74, 3.74, 3.74, 3.74, 3.74, 3.74, 3.74, 3.74, 3.74, 3.74, 3.74, 3.74, 3.74, 3.74, 3.74, 3.74, 3.74, 3.74, 3.74, 3.74, 3.74, 3.74, 3.74, 3.74, 3.74, 3.74, 3.74, 3.74, 3.74, 3.74, 3.74, 3.74, 3.74, 3.74, 3.74, 3.74 ],
        [ 19.44, 19.44, 19.44, 20, 20, 20, 20, 20, 20, 20, 20, 20, 20, 20, 20, 20, 20, 20, 20, 20, 20, 20, 20, 20, 20, 20, 20, 20, 20, 20, 20, 20, 20, 20, 20, 20, 20, 20, 20, 20, 20, 20, 20, 20, 20, 20, 20, 20, 20, 20, 20, 20, 20, 20, 20, 20, 20, 20, 20, 20 ],
        [ 60, 60, 60, 45, 45, 45, 30, 30, 30, 0, 0, 0, 0, 0, 0, 0, 0, 0, 0, 0, 0, 0, 0, 0, 0, 0, 0, 0, 0, 0, 0, 0, 0, 0, 0, 0, 0, 0, 0, 0, 0, 0, 0, 0, 0, 0, 0, 0, 0, 0, 0, 0, 0, 0, 0, 0, 0, 0, 0, 0 ],
        [ 0, 0, 0, 14.44, 14.44, 14.44, 29.44, 29.44, 29.44, 59.44, 59.44, 59.44, 59.44, 59.44, 59.44, 59.44, 59.44, 59.44, 59.44, 59.44, 59.44, 59.44, 59.44, 59.44, 59.44, 59.44, 59.44, 59.44, 59.44, 59.44, 59.44, 59.44, 59.44, 59.44, 59.44, 59.44, 59.44, 59.44, 59.44, 59.44, 59.44, 59.44, 59.44, 59.44, 59.44, 59.44, 59.44, 59.44, 59.44, 59.44, 59.44, 59.44, 59.44, 59.44, 59.44, 59.44, 59.44, 59.44, 59.44, 59.44 ],
        [ 0, 0, 0, 0, 0, 0, 0, 0, 0, 0, 0, 0, 0, 0, 0, 0, 0, 0, 0, 0, 0, 0, 0, 0, 0, 0, 0, 0, 0, 0, 0, 0, 0, 0, 0, 0, 0, 0, 0, 0, 0, 0, 0, 0, 0, 0, 0, 0, 0, 0, 0, 0, 0, 0, 0, 0, 0, 0, 0, 0 ]
      ]
    }
  ],
  "Guid": null,
  "ExcelURL": null,
  "LogURL": null,
  "Title": "Net income by time spent out of work, Australia, 2019",
  "Subtitle": "Couple with 2 children",
  "TaxbenCommand": "",
  "ExceptionMessage": null
}