country_name,year,net,gross,sa,ub,hb,fb,iw,it,sc,aw,cc_cost,cc_benefit
Latvia,2019,10777.7,12804,0,0,0,529.7,0,1147.5,1408.4,12804,24230.96,14158.14993
Latvia,2005,2234.6,2690.3,0,0,0,158.4,0,372.1,242.1,2690,784.2,0
Latvia,2006,2726,3331.3,0,0,0,158.4,0,463.9,299.8,3331,0,0
Latvia,2007,3640.5,4343.3,0,0,0,211.2,0,523.1,390.9,4343,864,0
Latvia,2008,4541.2,5254.2,0,0,0,211.2,0,451.3,472.9,5254,18002.05102,400.9836788
Latvia,2009,4450.5,5195.1,0,0,0,192,0,469.1,467.6,5195,2880,0
Latvia,2010,4343.8,5127.7,0,0,0,192,0,514.3,461.5,5128,0,0
Latvia,2011,4537.3,5363.8,0,0,0,192,0,428.4,590,5364,20424,0
Latvia,2012,4661.2,5549.3,0,0,0,192,0,469.7,610.4,5549,1581.12,0
Latvia,2013,4943.2,5810.8,0,0,0,192,0,420.4,639.2,5811,6936,1734
Latvia,2014,7963.1,8892,0,0,0,273.1,0,268.4,933.7,8892,0,0
Latvia,2015,8590.5,9588,0,0,0,409.7,0,400.5,1006.7,9588,4800,3420
Latvia,2016,8587.9,10140,0,0,0,409.7,0,897.1,1064.7,10140,552,0
Latvia,2017,9148.3,10980,0,0,0,409.7,0,1088.5,1152.9,10980,7200,5850
Latvia,2018,9844.5,11892,0,0,0,409.7,0,1149.1,1308.1,11892,0,0
